{
    "endRow": 10,
    "firstPage": 1,
    "hasNextPage": true,
    "hasPreviousPage": false,
    "isFirstPage": true,
    "isLastPage": false,
    "lastPage": 2,
    "list": [
    {
        "autologin": 1,
        "usrgname": "Zabbix administrators",
        "attempt_clock": 0,
        "refresh": 30,
        "attempt_failed": 0,
        "type": 3,
        "userid": 1,
        "attempt_ip": "",
        "url": "",
        "passwd": "5fce1b3e34b520afeffb37ce08c7cd66",
        "rows_per_page": 50,
        "phone": "",
        "surname": "Administrator",
        "autologout": 0,
        "name": "Zabbix",
        "alias": "Admin",
        "theme": "default",
        "lang": "zh_CN",
        "email": ""
    },
    {
        "autologin": 0,
        "attempt_clock": 0,
        "refresh": 30,
        "attempt_failed": 0,
        "type": 1,
        "userid": 2,
        "attempt_ip": "",
        "url": "",
        "passwd": "d41d8cd98f00b204e9800998ecf8427e",
        "rows_per_page": 50,
        "phone": "",
        "surname": "",
        "autologout": 900,
        "name": "",
        "alias": "guest",
        "theme": "default",
        "lang": "en_GB",
        "email": ""
    },
    {
        "autologin": 0,
        "attempt_clock": 0,
        "refresh": 30,
        "attempt_failed": 0,
        "type": 1,
        "userid": 3,
        "attempt_ip": "",
        "url": "",
        "passwd": "",
        "rows_per_page": 50,
        "phone": "",
        "surname": "",
        "autologout": 900,
        "name": "zhangsan",
        "alias": "张三",
        "theme": "default",
        "lang": "en_GB",
        "email": ""
    },
    {
        "autologin": 0,
        "usrgname": "Zabbix administrators",
        "attempt_clock": 0,
        "refresh": 30,
        "attempt_failed": 0,
        "type": 1,
        "userid": 4,
        "attempt_ip": "",
        "url": "",
        "passwd": "",
        "rows_per_page": 50,
        "phone": "",
        "surname": "",
        "autologout": 900,
        "name": "lisi",
        "alias": "李四",
        "theme": "default",
        "lang": "en_GB",
        "email": ""
    },
    {
        "autologin": 0,
        "attempt_clock": 0,
        "refresh": 30,
        "attempt_failed": 0,
        "type": 1,
        "userid": 5,
        "attempt_ip": "",
        "url": "",
        "passwd": "",
        "rows_per_page": 50,
        "phone": "",
        "surname": "行政管理",
        "autologout": 900,
        "name": "wangwu",
        "alias": "王五",
        "theme": "default",
        "lang": "en_GB",
        "email": ""
    },
    {
        "autologin": 0,
        "usrgname": "yasdasdy2,1123321",
        "attempt_clock": 0,
        "refresh": 30,
        "attempt_failed": 0,
        "type": 1,
        "userid": 6,
        "attempt_ip": "",
        "url": "",
        "passwd": "",
        "rows_per_page": 50,
        "phone": "",
        "surname": "",
        "autologout": 900,
        "name": "zhaoliu",
        "alias": "赵六",
        "theme": "default",
        "lang": "en_GB",
        "email": ""
    },
    {
        "autologin": 0,
        "attempt_clock": 0,
        "refresh": 30,
        "attempt_failed": 0,
        "type": 1,
        "userid": 7,
        "attempt_ip": "",
        "url": "",
        "passwd": "",
        "rows_per_page": 50,
        "phone": "",
        "surname": "",
        "autologout": 900,
        "name": "sunqi",
        "alias": "孙七",
        "theme": "default",
        "lang": "en_GB",
        "email": ""
    },
    {
        "autologin": 0,
        "attempt_clock": 0,
        "refresh": 30,
        "attempt_failed": 0,
        "type": 1,
        "userid": 8,
        "attempt_ip": "",
        "url": "",
        "passwd": "",
        "rows_per_page": 50,
        "phone": "",
        "surname": "",
        "autologout": 900,
        "name": "zhouba",
        "alias": "周八",
        "theme": "default",
        "lang": "en_GB",
        "email": ""
    },
    {
        "autologin": 0,
        "attempt_clock": 0,
        "refresh": 30,
        "attempt_failed": 0,
        "type": 1,
        "userid": 9,
        "attempt_ip": "",
        "url": "",
        "passwd": "",
        "rows_per_page": 50,
        "phone": "",
        "surname": "",
        "autologout": 900,
        "name": "wujiu",
        "alias": "吴九",
        "theme": "default",
        "lang": "en_GB",
        "email": ""
    },
    {
        "autologin": 0,
        "usrgname": "yasdasdy2,1123321",
        "attempt_clock": 0,
        "refresh": 30,
        "attempt_failed": 0,
        "type": 1,
        "userid": 10,
        "attempt_ip": "",
        "url": "",
        "passwd": "",
        "rows_per_page": 50,
        "phone": "",
        "surname": "",
        "autologout": 900,
        "name": "zhengshi",
        "alias": "郑十",
        "theme": "default",
        "lang": "en_GB",
        "email": ""
    }],
    "navigatePages": 8,
    "navigatepageNums": [1, 2],
    "nextPage": 2,
    "pageNum": 1,
    "pageSize": 10,
    "pages": 2,
    "prePage": 0,
    "size": 10,
    "startRow": 1,
    "total": 20
}